<?xml version="1.0" encoding="utf-8"?>
<!-- Generator: Adobe Illustrator 19.2.1, SVG Export Plug-In . SVG Version: 6.00 Build 0)  -->
<svg version="1.1" id="Layer_1" xmlns="http://www.w3.org/2000/svg" xmlns:xlink="http://www.w3.org/1999/xlink" x="0px" y="0px"
	 viewBox="0 0 50 50" style="enable-background:new 0 0 50 50;" xml:space="preserve">
<style type="text/css">
	.st0{opacity:0.6;fill:#EB5B41;}
</style>
<path class="st0" d="M17.9,25.3L34.7,6.2c0.3-0.3,0.3-0.8,0-1.1l-0.9-1.1c-0.2-0.2-0.4-0.3-0.6-0.3c-0.2,0-0.5,0.1-0.6,0.3
	L14.1,24.7c-0.3,0.3-0.3,0.8,0,1.1l18.3,20.8c0.2,0.2,0.4,0.3,0.6,0.3c0,0,0,0,0,0c0.2,0,0.5-0.1,0.6-0.3l0.9-1.1
	c0.3-0.3,0.3-0.8,0-1.1L17.9,25.3z"/>
</svg>
